<svg id="Grupo_696" data-name="Grupo 696" xmlns="http://www.w3.org/2000/svg" width="16.984" height="16.234" viewBox="0 0 16.984 16.234">
  <path id="Caminho_19" data-name="Caminho 19" d="M2.06-.668a1.9,1.9,0,1,0-.048,3.785h.024A1.9,1.9,0,1,0,2.06-.668Zm0,0" transform="translate(0 0.668)" fill="#8d8d8d"/>
  <path id="Caminho_20" data-name="Caminho 20" d="M8.109,198.313H11.75v10.954H8.109Zm0,0" transform="translate(-7.894 -193.033)" fill="#8d8d8d"/>
  <path id="Caminho_21" data-name="Caminho 21" d="M228.137,188.625a4.561,4.561,0,0,0-3.281,1.846v-1.589h-3.641v10.954h3.641v-6.117a2.5,2.5,0,0,1,.12-.889,1.993,1.993,0,0,1,1.868-1.331c1.317,0,1.844,1,1.844,2.477v5.86h3.641v-6.281c0-3.364-1.8-4.93-4.192-4.93Zm0,0" transform="translate(-215.344 -183.601)" fill="#8d8d8d"/>
</svg>
