<svg xmlns="http://www.w3.org/2000/svg" width="18.014" height="18.014" viewBox="0 0 18.014 18.014">
  <path id="iconmonstr-plus-2" d="M18.014,7.506H10.508V0h-3V7.506H0v3H7.506v7.506h3V10.508h7.506Z" fill="#8d8d8d"/>
</svg>
