<?xml version="1.0" encoding="UTF-8"?>
<svg width="7px" height="12px" viewBox="0 0 7 12" version="1.1" xmlns="http://www.w3.org/2000/svg" xmlns:xlink="http://www.w3.org/1999/xlink">
    <!-- Generator: Sketch 52.5 (67469) - http://www.bohemiancoding.com/sketch -->
    <title>navigate_next</title>
    <desc>Created with Sketch.</desc>
    <g id="Icons" stroke="none" stroke-width="1" fill="none" fill-rule="evenodd">
        <g id="Rounded" transform="translate(-619.000000, -2862.000000)">
            <g id="Image" transform="translate(100.000000, 2626.000000)">
                <g id="-Round-/-Image-/-navigate_next" transform="translate(510.000000, 230.000000)">
                    <g>
                        <polygon id="Path" points="0 0 24 0 24 24 0 24"></polygon>
                        <path d="M9.31,6.71 C8.92,7.1 8.92,7.73 9.31,8.12 L13.19,12 L9.31,15.88 C8.92,16.27 8.92,16.9 9.31,17.29 C9.7,17.68 10.33,17.68 10.72,17.29 L15.31,12.7 C15.7,12.31 15.7,11.68 15.31,11.29 L10.72,6.7 C10.34,6.32 9.7,6.32 9.31,6.71 Z" id="🔹-Icon-Color" fill="#85B43A"></path>
                    </g>
                </g>
            </g>
        </g>
    </g>
</svg>